<svg width="24" height="18" viewBox="0 0 24 18" fill="none" xmlns="http://www.w3.org/2000/svg">
<path d="M23.9821 2.17034C23.9821 2.14291 24.001 2.11622 23.9998 2.08911L16.6758 9.14616L23.991 15.9778C23.9953 15.929 23.9821 15.8798 23.9821 15.8299V2.17034V2.17034Z" fill="#3A3A3A"/>
<path d="M15.5583 10.2322L12.5685 13.1088C12.4172 13.2544 12.2218 13.3274 12.0263 13.3274C11.8348 13.3274 11.6434 13.2575 11.4931 13.1175L8.51141 10.339L1.14844 17.436C1.32747 17.5004 1.51964 17.5503 1.72088 17.5503H22.3318C22.6306 17.5503 22.9109 17.4593 23.1546 17.3235L15.5583 10.2322Z" fill="#3A3A3A"/>
<path d="M12.0178 11.4683L23.1952 0.701226C22.9421 0.550763 22.6476 0.449829 22.3318 0.449829H1.72094C1.3098 0.449829 0.933066 0.609468 0.639648 0.85294L12.0178 11.4683Z" fill="#3A3A3A"/>
<path d="M0 2.43262V15.8297C0 15.9835 0.0353478 16.1318 0.0737194 16.2735L7.34535 9.27111L0 2.43262Z" fill="#3A3A3A"/>
</svg>
