<svg width="24" height="24" viewBox="0 0 24 24" fill="none" xmlns="http://www.w3.org/2000/svg">
<g clip-path="url(#clip0)">
<path d="M15.2812 3.28125C15.2812 1.47197 13.8093 0 12 0C10.1907 0 8.71875 1.47197 8.71875 3.28125C8.71875 5.09053 10.1907 6.5625 12 6.5625C13.8093 6.5625 15.2812 5.09053 15.2812 3.28125ZM12 5.625C10.7077 5.625 9.65625 4.57359 9.65625 3.28125C9.65625 1.98891 10.7077 0.9375 12 0.9375C13.2923 0.9375 14.3438 1.98891 14.3438 3.28125C14.3438 4.57359 13.2923 5.625 12 5.625Z" fill="url(#paint0_linear)"/>
<path d="M5.53125 13.125C6.39061 13.125 7.29338 12.9739 8.05233 12.7113C8.26674 13.8351 8.48321 14.9867 8.60822 16.0723C6.50635 16.1375 5.07638 16.2885 4.01419 16.555C2.47032 16.9424 1.6875 17.6336 1.6875 18.6094C1.6875 19.7517 2.81541 21.0746 4.70466 22.148C4.93158 22.277 5.21696 22.1952 5.34375 21.972C5.47168 21.747 5.39288 21.4608 5.16779 21.333C3.41124 20.3349 2.625 19.2459 2.625 18.6094C2.625 17.3001 6.34149 17.0614 9.13702 16.9958C10.0425 17.419 11.0212 17.6312 12 17.6312C12.9788 17.6312 13.9576 17.419 14.863 16.9958C17.6585 17.0614 21.375 17.3001 21.375 18.6094C21.375 20.1823 18.1608 21.7918 16.6245 22.3086C16.4899 21.6739 16.1423 21.1037 15.6248 20.6915C15.4756 20.5726 15.3163 20.4705 15.15 20.3839C15.9297 20.0657 16.6833 19.7812 17.625 19.7812C17.8839 19.7812 18.0938 19.5714 18.0938 19.3125C18.0938 19.0536 17.8839 18.8438 17.625 18.8438C16.4343 18.8438 15.5193 19.219 14.6345 19.5819C14.1023 19.8002 13.5996 20.0063 13.0436 20.1316C13.0414 20.1321 13.0393 20.1326 13.0371 20.1331C12.7656 20.1982 12.3719 20.25 12 20.25C10.9941 20.25 10.203 19.9255 9.36539 19.5819C8.48058 19.219 7.56568 18.8438 6.375 18.8438C6.11611 18.8438 5.90625 19.0536 5.90625 19.3125C5.90625 19.5714 6.11611 19.7812 6.375 19.7812C7.38089 19.7812 8.172 20.1058 9.00961 20.4493C9.89443 20.8122 10.8093 21.1875 12 21.1875C12.4603 21.1875 12.9336 21.1226 13.2748 21.0406C13.9082 20.8953 14.5518 21.0353 15.0407 21.4248C15.4118 21.7204 15.6476 22.1221 15.7233 22.5782C14.5087 22.8993 13.2581 23.0625 12 23.0625C10.9879 23.0625 9.96985 22.9556 8.97404 22.7447C8.72068 22.691 8.472 22.8529 8.41833 23.1061C8.36471 23.3594 8.52657 23.6082 8.77979 23.6618C9.83935 23.8862 10.9228 24 12 24C17.6321 24 22.3125 20.8942 22.3125 18.6094C22.3125 16.2925 17.8654 16.149 15.3919 16.0723C15.517 14.9869 15.7332 13.836 15.9474 12.7128C16.7068 12.9773 17.5967 13.125 18.4688 13.125C20.9693 13.125 23.8665 11.7233 23.9993 9.30698C24.0082 9.1448 23.9326 8.98955 23.7992 8.89669C23.666 8.80383 23.4942 8.78653 23.3451 8.85108C22.587 9.17916 21.5527 9.375 20.5781 9.375C17.8939 9.375 16.5025 8.00278 16.3477 7.93566C15.1043 7.04648 13.5944 6.5625 12.0333 6.5625H11.9667C11.4775 6.5625 10.9867 6.6105 10.5079 6.705C9.19904 6.94828 7.72543 7.78612 7.48758 8.05622C6.28725 8.96461 4.90618 9.375 3.42188 9.375C2.44735 9.375 1.413 9.17916 0.654941 8.85108C0.505879 8.78658 0.334035 8.80383 0.20077 8.89669C0.067504 8.98955 -0.00819913 9.1448 0.000707119 9.30698C0.133926 11.7303 3.04182 13.125 5.53125 13.125V13.125ZM9.56086 16.1589C9.30075 13.7045 8.57804 11.0198 8.33227 8.60452C8.87771 8.23589 9.48624 7.95056 10.125 7.76334V8.4375C10.125 9.47137 10.9661 10.3125 12 10.3125C13.0339 10.3125 13.875 9.47137 13.875 8.4375V7.7633C14.5133 7.95042 15.1217 8.23566 15.6678 8.60461C15.4255 10.9979 14.7001 13.7007 14.4391 16.1589C12.8944 16.8714 11.1056 16.8714 9.56086 16.1589V16.1589ZM20.5781 10.3125C21.3473 10.3125 22.1547 10.2019 22.8684 10.0058C22.2845 11.2456 20.4816 12.1875 18.4688 12.1875C17.6583 12.1875 16.8077 12.0373 16.1244 11.7794C16.2863 10.9149 16.4358 10.0646 16.5404 9.22884C17.6356 9.91378 19.0999 10.3125 20.5781 10.3125ZM12.0333 7.5C12.3354 7.5 12.6382 7.52133 12.9375 7.56267V8.4375C12.9375 8.95444 12.5169 9.375 12 9.375C11.4831 9.375 11.0625 8.95444 11.0625 8.4375V7.56267C11.3618 7.52133 11.6646 7.5 11.9667 7.5H12.0333ZM3.42188 10.3125C4.90036 10.3125 6.36483 9.91364 7.46007 9.22866C7.56624 10.0738 7.71839 10.9395 7.87547 11.7789C7.19218 12.0372 6.34318 12.1875 5.53125 12.1875C3.51844 12.1875 1.71554 11.2456 1.13161 10.0058C1.84533 10.2019 2.65266 10.3125 3.42188 10.3125Z" fill="url(#paint1_linear)"/>
<path d="M6.84375 23.1094C7.10263 23.1094 7.3125 22.8995 7.3125 22.6406C7.3125 22.3817 7.10263 22.1719 6.84375 22.1719C6.58487 22.1719 6.375 22.3817 6.375 22.6406C6.375 22.8995 6.58487 23.1094 6.84375 23.1094Z" fill="url(#paint2_linear)"/>
</g>
<defs>
<linearGradient id="paint0_linear" x1="12" y1="0" x2="12" y2="6.5625" gradientUnits="userSpaceOnUse">
<stop stop-color="#142A7B"/>
<stop offset="1" stop-color="#002DD2"/>
</linearGradient>
<linearGradient id="paint1_linear" x1="12" y1="6.5625" x2="12" y2="24" gradientUnits="userSpaceOnUse">
<stop stop-color="#142A7B"/>
<stop offset="1" stop-color="#002DD2"/>
</linearGradient>
<linearGradient id="paint2_linear" x1="6.84375" y1="22.1719" x2="6.84375" y2="23.1094" gradientUnits="userSpaceOnUse">
<stop stop-color="#142A7B"/>
<stop offset="1" stop-color="#002DD2"/>
</linearGradient>
<clipPath id="clip0">
<rect width="24" height="24" fill="white"/>
</clipPath>
</defs>
</svg>
