<svg width="34" height="27" viewBox="0 0 34 27" fill="none" xmlns="http://www.w3.org/2000/svg">
<g clip-path="url(#clip0)">
<path d="M33.3303 26.6338V26.7032H33.3937C33.4056 26.7034 33.4173 26.7003 33.4277 26.6943C33.4318 26.6914 33.4351 26.6874 33.4374 26.6827C33.4396 26.6781 33.4406 26.673 33.4404 26.6678C33.4406 26.6627 33.4396 26.6577 33.4373 26.6532C33.4351 26.6487 33.4318 26.6448 33.4277 26.6419C33.4174 26.6357 33.4056 26.6326 33.3937 26.6331H33.3303V26.6338ZM33.3943 26.5847C33.4215 26.583 33.4484 26.591 33.4705 26.6072C33.4793 26.6146 33.4864 26.624 33.491 26.6347C33.4956 26.6454 33.4978 26.657 33.4972 26.6687C33.4976 26.6787 33.4959 26.6887 33.4922 26.698C33.4885 26.7073 33.4829 26.7157 33.4758 26.7226C33.4588 26.7377 33.4374 26.7468 33.4149 26.7485L33.4999 26.8474H33.4345L33.3563 26.7492H33.3309V26.8474H33.2762V26.5849H33.3952L33.3943 26.5847ZM33.3773 26.938C33.4061 26.9382 33.4345 26.9323 33.4608 26.9206C33.4862 26.9095 33.5093 26.8935 33.5288 26.8736C33.5484 26.8537 33.564 26.8301 33.5749 26.8042C33.5972 26.7492 33.5972 26.6874 33.5749 26.6324C33.5639 26.6065 33.5483 26.583 33.5288 26.563C33.5093 26.5431 33.4862 26.5271 33.4608 26.516C33.4343 26.5049 33.406 26.4993 33.3773 26.4997C33.3482 26.4994 33.3194 26.5049 33.2923 26.516C33.2664 26.5269 33.2428 26.5429 33.2228 26.563C33.1927 26.5945 33.1724 26.6343 33.1643 26.6775C33.1563 26.7207 33.1608 26.7653 33.1774 26.8059C33.1878 26.832 33.2032 26.8556 33.2228 26.8753C33.2428 26.8954 33.2664 26.9114 33.2923 26.9224C33.3192 26.9341 33.3481 26.94 33.3773 26.9397V26.938ZM33.3773 26.4365C33.4521 26.4364 33.5238 26.4663 33.5771 26.5198C33.6028 26.5455 33.6232 26.5761 33.6373 26.6098C33.6518 26.6445 33.6593 26.6819 33.6593 26.7196C33.6593 26.7573 33.6518 26.7947 33.6373 26.8293C33.6229 26.8629 33.6025 26.8935 33.5771 26.9194C33.551 26.9449 33.5207 26.9655 33.4875 26.9801C33.4527 26.9952 33.4152 27.0029 33.3773 27.0027C33.3391 27.003 33.3011 26.9953 33.2658 26.9801C33.2323 26.9658 33.2017 26.9452 33.1756 26.9194C33.1502 26.8925 33.13 26.861 33.1162 26.8264C33.1017 26.7917 33.0942 26.7544 33.0942 26.7166C33.0942 26.6789 33.1017 26.6416 33.1162 26.6069C33.1303 26.5731 33.1507 26.5425 33.1764 26.5168C33.2022 26.4906 33.2329 26.4699 33.2667 26.4561C33.302 26.4409 33.3399 26.4333 33.3782 26.4335L33.3773 26.4365ZM7.34694 25.4226C7.34694 24.922 7.66824 24.5108 8.19337 24.5108C8.69521 24.5108 9.03385 24.9043 9.03385 25.4226C9.03385 25.9409 8.69521 26.3345 8.19337 26.3345C7.66824 26.3345 7.34694 25.9232 7.34694 25.4226ZM9.6059 25.4226V23.998H8.99917V24.345C8.80673 24.0886 8.51484 23.9277 8.11789 23.9277C7.33589 23.9277 6.72219 24.5538 6.72219 25.4233C6.72219 26.2928 7.33555 26.9189 8.11789 26.9189C8.51467 26.9189 8.80673 26.7579 8.99917 26.5016V26.8474H9.60522V25.4226H9.6059ZM30.1065 25.4226C30.1065 24.922 30.4278 24.5108 30.9531 24.5108C31.4555 24.5108 31.7936 24.9043 31.7936 25.4226C31.7936 25.9409 31.4555 26.3345 30.9531 26.3345C30.428 26.3345 30.1065 25.9232 30.1065 25.4226ZM32.3662 25.4226V22.8545H31.7589V24.345C31.5665 24.0886 31.2746 23.9277 30.8777 23.9277C30.0957 23.9277 29.482 24.5538 29.482 25.4233C29.482 26.2928 30.0953 26.9189 30.8777 26.9189C31.2746 26.9189 31.5665 26.7579 31.7589 26.5016V26.8474H32.3662V25.4226ZM17.1362 24.4814C17.5272 24.4814 17.7783 24.7316 17.8424 25.1722H16.3947C16.4595 24.761 16.7041 24.4814 17.1364 24.4814H17.1362ZM17.1485 23.9262C16.3308 23.9262 15.7587 24.5335 15.7587 25.4217C15.7587 26.3274 16.3537 26.9173 17.1891 26.9173C17.6093 26.9173 17.9942 26.8103 18.3329 26.5182L18.0355 26.0593C17.8016 26.2501 17.5038 26.3572 17.2238 26.3572C16.8328 26.3572 16.4768 26.1724 16.3892 25.6596H18.461C18.467 25.5826 18.4731 25.5049 18.4731 25.4216C18.467 24.5337 17.9291 23.926 17.1481 23.926L17.1485 23.9262ZM24.4734 25.4216C24.4734 24.921 24.7947 24.5097 25.3199 24.5097C25.8217 24.5097 26.1603 24.9033 26.1603 25.4216C26.1603 25.9399 25.8217 26.3334 25.3199 26.3334C24.7947 26.3334 24.4733 25.9222 24.4733 25.4216H24.4734ZM26.7322 25.4216V23.998H26.1258V24.345C25.9327 24.0886 25.6415 23.9277 25.2445 23.9277C24.4625 23.9277 23.8488 24.5538 23.8488 25.4233C23.8488 26.2928 24.4622 26.9189 25.2445 26.9189C25.6415 26.9189 25.9327 26.7579 26.1258 26.5016V26.8474H26.7324V25.4226L26.7322 25.4216ZM21.0471 25.4216C21.0471 26.2855 21.6363 26.9172 22.5356 26.9172C22.9558 26.9172 23.2358 26.8217 23.5386 26.5776L23.2472 26.077C23.0194 26.2441 22.7802 26.3334 22.5162 26.3334C22.0319 26.3274 21.6757 25.9699 21.6757 25.4216C21.6757 24.8732 22.0319 24.516 22.5162 24.5097C22.7795 24.5097 23.0187 24.5991 23.2472 24.7662L23.5386 24.2656C23.2353 24.0214 22.9553 23.926 22.5356 23.926C21.6363 23.926 21.0471 24.5574 21.0471 25.4216ZM28.8688 23.926C28.5187 23.926 28.2908 24.0931 28.1332 24.3433V23.998H27.5319V26.8458H28.1393V25.2494C28.1393 24.7782 28.3377 24.5163 28.7343 24.5163C28.8642 24.5144 28.9931 24.5388 29.1137 24.588L29.3007 24.0042C29.1664 23.9503 28.9913 23.9265 28.8684 23.9265L28.8688 23.926ZM12.6056 24.2244C12.3137 24.028 11.9114 23.9265 11.4677 23.9265C10.7609 23.9265 10.3058 24.2723 10.3058 24.8382C10.3058 25.3025 10.6446 25.589 11.2685 25.6784L11.5551 25.72C11.8878 25.7677 12.0449 25.8571 12.0449 26.018C12.0449 26.2382 11.8239 26.3638 11.4089 26.3638C10.9887 26.3638 10.6854 26.2267 10.4809 26.0659L10.1958 26.5488C10.5285 26.799 10.9487 26.9184 11.4038 26.9184C12.2096 26.9184 12.6766 26.5311 12.6766 25.9888C12.6766 25.4882 12.3091 25.2264 11.7018 25.137L11.4159 25.0947C11.1532 25.0599 10.9428 25.006 10.9428 24.8151C10.9428 24.6069 11.1412 24.4816 11.474 24.4816C11.8302 24.4816 12.1749 24.6187 12.3439 24.7257L12.6066 24.2251L12.6056 24.2244ZM20.4342 23.927C20.0842 23.927 19.8562 24.0941 19.6993 24.3443V23.998H19.098V26.8458H19.7048V25.2494C19.7048 24.7782 19.9031 24.5163 20.2998 24.5163C20.4296 24.5144 20.5586 24.5388 20.6792 24.588L20.8662 24.0042C20.7319 23.9503 20.5568 23.9265 20.4339 23.9265L20.4342 23.927ZM15.2567 23.998H14.2646V23.134H13.6512V23.998H13.0853V24.564H13.6512V25.8632C13.6512 26.524 13.9025 26.9175 14.6202 26.9175C14.8836 26.9175 15.1868 26.8342 15.3793 26.6973L15.204 26.167C15.023 26.2741 14.8246 26.328 14.6668 26.328C14.3635 26.328 14.2646 26.1372 14.2646 25.8514V24.5645H15.2567V23.998ZM6.18567 26.8465V25.0593C6.18567 24.3862 5.76543 23.9333 5.08798 23.9272C4.73183 23.9211 4.36446 24.0343 4.10725 24.4339C3.91481 24.1181 3.61153 23.9272 3.18517 23.9272C2.88716 23.9272 2.59595 24.0166 2.36798 24.3501V23.998H1.76074V26.8458H2.37274V25.2668C2.37274 24.7724 2.64134 24.5097 3.05614 24.5097C3.45904 24.5097 3.66287 24.7778 3.66287 25.2605V26.8455H4.27623V25.2664C4.27623 24.7721 4.55622 24.5094 4.95895 24.5094C5.37324 24.5094 5.57095 24.7775 5.57095 25.2602V26.8451L6.18567 26.8465Z" fill="#231F20"/>
<path d="M33.6765 17.3734V16.9569H33.5703L33.4474 17.2427L33.3252 16.9569H33.2186V17.3734H33.294V17.0596L33.409 17.3303H33.4872L33.6021 17.0589V17.3734H33.6769H33.6765ZM33.0025 17.3734V17.0282H33.1385V16.958H32.791V17.0282H32.927V17.3734H33.0018H33.0025Z" fill="#F79410"/>
<path d="M21.5999 19.1594H12.4053V2.29309H21.6001L21.5999 19.1594Z" fill="#FF5F00"/>
<path d="M12.988 10.7259C12.988 7.30455 14.5574 4.25681 17.0014 2.29272C15.1514 0.803808 12.8634 -0.00427378 10.5075 -0.000720755C4.70424 -0.000720755 0 4.80167 0 10.7259C0 16.6501 4.70424 21.4525 10.5075 21.4525C12.8634 21.4561 15.1516 20.648 17.0015 19.159C14.5578 17.1953 12.988 14.1474 12.988 10.7259Z" fill="#EB001B"/>
<path d="M34.0043 10.7266C34.0043 16.6508 29.3001 21.4532 23.4968 21.4532C21.1407 21.4567 18.8523 20.6487 17.002 19.1598C19.4466 17.1957 21.016 14.1481 21.016 10.7266C21.016 7.30511 19.4466 4.25754 17.002 2.29345C18.8522 0.804585 21.1405 -0.00347908 23.4966 1.12597e-05C29.2999 1.12597e-05 34.0042 4.8024 34.0042 10.7266" fill="#F79E1B"/>
</g>
<defs>
<clipPath id="clip0">
<rect width="34" height="27" fill="white"/>
</clipPath>
</defs>
</svg>
